{
  "project_info": {
    "project_number": "459042067181",
    "firebase_url": "https://fir-db-b6710.firebaseio.com",
    "project_id": "fir-db-b6710",
    "storage_bucket": "fir-db-b6710.appspot.com"
  },
  "client": [
    {
      "client_info": {
        "mobilesdk_app_id": "1:459042067181:android:63981de1004e8a48",
        "android_client_info": {
          "package_name": "com.example.itachi.firebasedb"
        }
      },
      "oauth_client": [
        {
          "client_id": "459042067181-igbgo6clhs8ukgglr12nesmq0bkg75gq.apps.googleusercontent.com",
          "client_type": 3
        }
      ],
      "api_key": [
        {
          "current_key": "AIzaSyAK0uMN-abGPP2mLtL06N1HCI-JVHMHFoE"
        }
      ],
      "services": {
        "analytics_service": {
          "status": 1
        },
        "appinvite_service": {
          "status": 1,
          "other_platform_oauth_client": []
        },
        "ads_service": {
          "status": 2
        }
      }
    }
  ],
  "configuration_version": "1"
}